{
  "Weibo": {
    "appid": "2354973990",
    "authorization_uri":"https://api.weibo.com/oauth2/authorize?client_id=2354973990&scope=follow_app_official_microblog&display=mobile&redirect_uri=https%3a%2f%2flive.curries.cc%2fapi%2fv1%2fuser%2flogin%3fby%3dweibo%26appid%3d2354973990#",
    "redirect_uri":"https://live.curries.cc/api/v1/user/login?by=weibo&appid=2354973990",
  }
}
